$MeshFormat
2.2 0 8
$EndMeshFormat
$Nodes
252
1 0 1 0
2 0.3 0.3 0
3 1 0 0
4 0.3 -0.3 0
5 0 -1 0
6 -0.3 -0.3 0
7 -1 0 0
8 -0.3 0.3 0
9 0 0.1333333333333333 0
10 0.03333333333324715 0.9222222222224233 0
11 0.06666666666649441 0.8444444444448463 0
12 0.09999999999974458 0.7666666666672627 0
13 0.1333333333329895 0.6888888888896911 0
14 0.1666666666663396 0.6111111111118742 0
15 0.1999999999997776 0.5333333333338524 0
16 0.2333333333331789 0.455555555555916 0
17 0.2666666666665882 0.377777777777961 0
18 0.3777777777776393 0.266666666666726 0
19 0.4555555555552014 0.2333333333334851 0
20 0.5333333333326786 0.2000000000002806 0
21 0.6111111111102381 0.1666666666670408 0
22 0.6888888888879944 0.1333333333337167 0
23 0.7666666666659332 0.1000000000003143 0
24 0.8444444444438721 0.06666666666691196 0
25 0.9222222222219516 0.03333333333344934 0
26 0.9222222222224233 -0.03333333333324715 0
27 0.8444444444448463 -0.06666666666649441 0
28 0.7666666666672627 -0.09999999999974458 0
29 0.6888888888896911 -0.1333333333329895 0
30 0.6111111111118742 -0.1666666666663396 0
31 0.5333333333338524 -0.1999999999997776 0
32 0.455555555555916 -0.2333333333331789 0
33 0.377777777777961 -0.2666666666665882 0
34 0.266666666666726 -0.3777777777776393 0
35 0.2333333333334851 -0.4555555555552014 0
36 0.2000000000002806 -0.5333333333326786 0
37 0.1666666666670408 -0.6111111111102381 0
38 0.1333333333337167 -0.6888888888879944 0
39 0.1000000000003143 -0.7666666666659332 0
40 0.06666666666691196 -0.8444444444438721 0
41 0.03333333333344934 -0.9222222222219516 0
42 -0.03333333333324715 -0.9222222222224233 0
43 -0.06666666666649441 -0.8444444444448463 0
44 -0.09999999999974458 -0.7666666666672627 0
45 -0.1333333333329895 -0.6888888888896911 0
46 -0.1666666666663396 -0.6111111111118742 0
47 -0.1999999999997776 -0.5333333333338524 0
48 -0.2333333333331789 -0.455555555555916 0
49 -0.2666666666665882 -0.377777777777961 0
50 -0.3777777777776393 -0.266666666666726 0
51 -0.4555555555552014 -0.2333333333334851 0
52 -0.5333333333326786 -0.2000000000002806 0
53 -0.6111111111102381 -0.1666666666670408 0
54 -0.6888888888879944 -0.1333333333337167 0
55 -0.7666666666659332 -0.1000000000003143 0
56 -0.8444444444438721 -0.06666666666691196 0
57 -0.9222222222219516 -0.03333333333344934 0
58 -0.9222222222224233 0.03333333333324715 0
59 -0.8444444444448463 0.06666666666649441 0
60 -0.7666666666672627 0.09999999999974458 0
61 -0.6888888888896911 0.1333333333329895 0
62 -0.6111111111118742 0.1666666666663396 0
63 -0.5333333333338524 0.1999999999997776 0
64 -0.455555555555916 0.2333333333331789 0
65 -0.377777777777961 0.2666666666665882 0
66 -0.266666666666726 0.3777777777776393 0
67 -0.2333333333334851 0.4555555555552014 0
68 -0.2000000000002806 0.5333333333326786 0
69 -0.1666666666670408 0.6111111111102381 0
70 -0.1333333333337167 0.6888888888879944 0
71 -0.1000000000003143 0.7666666666659332 0
72 -0.06666666666691196 0.8444444444438721 0
73 -0.03333333333344934 0.9222222222219516 0
74 0.07615478917473316 0.1052777494979022 0
75 0.1255405541106183 0.0403269241991501 0
76 0.1255405541109781 -0.04032692419821091 0
77 0.07615478917555669 -0.1052777494972703 0
78 1.081579270589828e-12 -0.1333333333333333 0
79 -0.07615478917420059 -0.1052777494983108 0
80 -0.1255405541105307 -0.04032692419937858 0
81 -0.1255405541109034 0.04032692419840592 0
82 -0.07615478917502419 0.1052777494976789 0
83 0.3721538897447267 0.001733765317454932 0
84 -0.3721538897446304 -0.0006964863417409982 0
85 0.002190603541786424 -0.3780614104309964 0
86 -0.0007929315532575345 0.3775376363996732 0
87 0.5525647294962018 0.00107038506673227 0
88 -0.5543224954549405 0.0002351402094583567 0
89 0.001177729492718018 -0.5584378813268144 0
90 -0.001177729492718031 0.5584378813268144 0
91 0.1307266830203817 -0.2608004592013921 0
92 0.1360522972082311 0.2706184320968428 0
93 -0.1305030182411914 0.2614117956600588 0
94 -0.1360369506168159 -0.2714458824029061 0
95 0.2788290047235985 -0.1306241417809687 0
96 -0.2788649514116315 0.1306353929460461 0
97 0.2789949684480566 0.1298691999979746 0
98 -0.2789949684480026 -0.1298691999980041 0
99 -0.6743689084608513 -0.0005976599772394358 0
100 0.6747756136398745 0.0004655353319739259 0
101 0.2408555446085952 0.00121512582919521 0
102 -0.240725527570979 -0.0004489328803706752 0
103 0.4556967804382807 -0.09293826082449684 0
104 -0.4575110416181602 0.09335785521610745 0
105 0.4566657068461681 0.09328466234031849 0
106 -0.4564330514971279 -0.0930011280096827 0
107 0.0007702442964293681 -0.6773570614407434 0
108 -0.0007702442964293828 0.6773570614407433 0
109 0.08397758496677395 -0.4747254748991529 0
110 -0.08386146291710631 0.473829782801753 0
111 -0.0821260700037994 -0.4743977268959779 0
112 0.08288349844618051 0.4738297828018627 0
113 0.007890111014392078 0.2468586459313243 0
114 -0.004873356543583033 -0.2461812075628684 0
115 0.1470533058441365 -0.3674060481668273 0
116 -0.1470533058441579 0.367406048166905 0
117 0.1470533058440981 0.3674060481669867 0
118 -0.1469591596122632 -0.3682601156879006 0
119 0.1692671183776865 -0.1689987637688164 0
120 -0.1692841007118737 0.1691670572098967 0
121 0.1666549311749215 0.1747285594120911 0
122 -0.166710156775691 -0.174060554646799 0
123 0.3746102066394732 0.1435762950069721 0
124 -0.3744949996205901 -0.1436151027717854 0
125 0.3734512500543628 -0.143271376464069 0
126 -0.3736274603274686 0.1433124093742412 0
127 0.2238822013476509 0.2424754828031679 0
128 -0.223639438384992 -0.2416064706328961 0
129 0.223049408652317 -0.2404236458328175 0
130 -0.2231023942484365 0.2412256898571604 0
131 -0.0559770305740611 0.20418247893609 0
132 0.05597703057471731 -0.1978332725864257 0
133 0.613128313720968 0.06852014230235172 0
134 -0.6134351318727563 -0.06904665617514243 0
135 0.6131283137210158 -0.06774425008189215 0
136 -0.6147219824533402 0.06785753436764226 0
137 -0.773372927683175 3.206043254711616e-14 0
138 0.7728916180196316 3.879461098974677e-05 0
139 -0.06800022808844321 -0.6162317725133905 0
140 0.06800022808844321 0.6162317725133905 0
141 0.06955283311284523 -0.6167915800732944 0
142 -0.06948025683180804 0.6162317725124068 0
143 6.418702469780804e-05 -0.7738951551335725 0
144 -6.418702469782597e-05 0.7738951551335723 0
145 0.07541453102880406 0.1969936322498944 0
146 -0.07543435658735036 -0.1905596395084487 0
147 0.4597155126601546 0.001889360872421593 0
148 -0.4600144975323124 0.001578676149421579 0
149 0.07200411055593375 -0.3343993492772436 0
150 -0.07018359946245004 0.3340569236742898 0
151 0.07140848319457828 0.3352647507803847 0
152 -0.06886331643627269 -0.3360170116570072 0
153 0.202361262444808 -0.08227749194984232 0
154 -0.2026847826372284 0.08237875243555924 0
155 0.2033798409390336 0.08214554759263985 0
156 -0.2035544016585402 -0.08274674443637564 0
157 0.001730019202666676 -0.4675306485339061 0
158 -0.001468174381570052 0.4668052234544485 0
159 0.3340595536796951 -0.0693810158675473 0
160 -0.3338712691552475 0.07019122722499632 0
161 0.3342818651228787 0.072039752013645 0
162 -0.3339378107512809 -0.07128629204370772 0
163 0.3097994451620393 0.210122423416915 0
164 -0.3091005152290586 -0.2107801489827742 0
165 0.3089291111316896 -0.2107066623802921 0
166 -0.3096322071777553 0.2099774324378969 0
167 0.53511777908897 0.1219050885810693 0
168 0.5333753549799582 -0.1214194601435931 0
169 -0.5335351828551095 -0.1217042400793087 0
170 -0.5341682038157246 0.1214566480454684 0
171 -0.1193732162117334 -0.5385466050816748 0
172 0.1192724579018443 0.538463502545681 0
173 0.1204794105096957 -0.5389183457019538 0
174 -0.1195559170898311 0.5384635025449219 0
175 8.558269933781985e-06 -0.8615987190973082 0
176 0.8614649141487827 5.1726147727064e-06 0
177 -0.8615290887705884 3.019991664151196e-14 0
178 -8.558269933834027e-06 0.8615987190973082 0
179 -0.21334419391173 -0.3244257749819874 0
180 0.2133833334435003 0.324335496575698 0
181 0.2126990660120607 -0.3230166288127639 0
182 -0.2126801016583858 0.3231736710886535 0
183 0.1547185259286742 -0.4517158684133331 0
184 -0.1542263296026072 0.4523189672145276 0
185 0.1541331901289684 0.4523189672148501 0
186 -0.1557974433603513 -0.452498945944679 0
187 0.05688651101097784 -0.2716343757571258 0
188 -0.05470229583396375 0.2731789491845611 0
189 0.4545076835070179 0.1667682856388217 0
190 -0.4535306651581919 -0.1674593014997927 0
191 0.4535447332638516 -0.1657456180535811 0
192 -0.4538539910736909 0.165800930853999 0
193 -0.7041592332653512 -0.06218017416892718 0
194 0.704108376913845 0.0620975283146594 0
195 -0.7043308133437052 0.06186224860036393 0
196 0.704108376914794 -0.06185958803349988 0
197 0.06249796924587205 -0.7051685541187261 0
198 -0.06248829240840049 0.7050939131106078 0
199 -0.06206844022335117 -0.705093913111685 0
200 0.06206844022335119 0.705093913111685 0
201 0.1791295169378486 0.000144424196625954 0
202 -0.1791785921210068 -0.0001089233178647013 0
203 0.07251523836324726 -0.4096516866674398 0
204 -0.07206097766557774 0.4094423291108119 0
205 0.07157559632309105 0.4095765321226819 0
206 -0.07119870687742798 -0.4099769154929566 0
207 0.2718020895534046 -0.05683164204907211 0
208 -0.2714632315465574 0.05801196233239814 0
209 0.2719896700411263 0.06030822425988267 0
210 -0.2716053885665064 -0.05923063196081178 0
211 0.3997294643748073 0.06200179748037925 0
212 -0.3998188387637278 -0.06237667587010904 0
213 0.3995416380314812 -0.0619570052185572 0
214 -0.3996962613570802 0.06136444362194214 0
215 0.1380259031948534 -0.1083409380711999 0
216 -0.1380713035313658 0.1083768785950524 0
217 0.133632929011862 0.1146376172209334 0
218 -0.1336662105954127 -0.1137708437993753 0
219 -0.6143303412381913 -0.00165521292526183 0
220 0.6137884166275781 0.00178190809925115 0
221 0.5197348834708806 -0.05545059427933005 0
222 -0.5210757584001882 0.0564649864883353 0
223 0.5210267853479293 0.05630135128070493 0
224 -0.5199343570959138 -0.05608727532852855 0
225 -0.003469017213690889 0.3111998178399938 0
226 0.005067574176238253 -0.3098587281669097 0
227 0.3053452494561209 0.004654734096912564 0
228 -0.3050722770817921 -0.003772646288185577 0
229 0.05635703975516469 -0.5276245210290191 0
230 -0.0552345135559773 0.5274713651181684 0
231 -0.05404094354195009 -0.5276548946796172 0
232 0.05416341220242857 0.5274713651183417 0
233 0.002894162691428954 -0.6180020047822217 0
234 -0.002882066644589457 0.6179087035220737 0
235 -0.008744815066709365 -0.1926659989165125 0
236 0.009402148617502925 0.2058364002071358 0
237 0.06133275301317076 0.2729249699028587 0
238 -0.05988057987394347 -0.2746938464512407 0
239 0.2326585609827016 -0.1709897613672522 0
240 -0.2321186867426195 0.1712457593219853 0
241 0.2319821151289147 0.1720206789697291 0
242 -0.2326003710042617 -0.1717940830984841 0
243 -0.1115881085270955 0.1649109246256033 0
244 0.111609612808593 -0.163955621055493 0
245 0.2055537888646073 -0.3966955690255303 0
246 -0.2054856341073258 0.3967969211691581 0
247 0.2055669797487348 0.3969518312344707 0
248 -0.2057711087444531 -0.3971017411887479 0
249 0.3963233346640725 0.2064868771067289 0
250 -0.3960845139573139 -0.2066718836656146 0
251 0.3959243692166285 -0.2063877641514383 0
252 -0.396082844433832 0.2063033795872024 0
$EndNodes
$Elements
504
1 1 2 2 1 1 10
2 1 2 2 1 10 11
3 1 2 2 1 11 12
4 1 2 2 1 12 13
5 1 2 2 1 13 14
6 1 2 2 1 14 15
7 1 2 2 1 15 16
8 1 2 2 1 16 17
9 1 2 2 1 17 2
10 1 2 3 2 2 18
11 1 2 3 2 18 19
12 1 2 3 2 19 20
13 1 2 3 2 20 21
14 1 2 3 2 21 22
15 1 2 3 2 22 23
16 1 2 3 2 23 24
17 1 2 3 2 24 25
18 1 2 3 2 25 3
19 1 2 4 3 3 26
20 1 2 4 3 26 27
21 1 2 4 3 27 28
22 1 2 4 3 28 29
23 1 2 4 3 29 30
24 1 2 4 3 30 31
25 1 2 4 3 31 32
26 1 2 4 3 32 33
27 1 2 4 3 33 4
28 1 2 5 4 4 34
29 1 2 5 4 34 35
30 1 2 5 4 35 36
31 1 2 5 4 36 37
32 1 2 5 4 37 38
33 1 2 5 4 38 39
34 1 2 5 4 39 40
35 1 2 5 4 40 41
36 1 2 5 4 41 5
37 1 2 6 5 5 42
38 1 2 6 5 42 43
39 1 2 6 5 43 44
40 1 2 6 5 44 45
41 1 2 6 5 45 46
42 1 2 6 5 46 47
43 1 2 6 5 47 48
44 1 2 6 5 48 49
45 1 2 6 5 49 6
46 1 2 1 6 6 50
47 1 2 1 6 50 51
48 1 2 1 6 51 52
49 1 2 1 6 52 53
50 1 2 1 6 53 54
51 1 2 1 6 54 55
52 1 2 1 6 55 56
53 1 2 1 6 56 57
54 1 2 1 6 57 7
55 1 2 7 7 7 58
56 1 2 7 7 58 59
57 1 2 7 7 59 60
58 1 2 7 7 60 61
59 1 2 7 7 61 62
60 1 2 7 7 62 63
61 1 2 7 7 63 64
62 1 2 7 7 64 65
63 1 2 7 7 65 8
64 1 2 8 8 8 66
65 1 2 8 8 66 67
66 1 2 8 8 67 68
67 1 2 8 8 68 69
68 1 2 8 8 69 70
69 1 2 8 8 70 71
70 1 2 8 8 71 72
71 1 2 8 8 72 73
72 1 2 8 8 73 1
73 1 2 9 9 9 74
74 1 2 9 9 74 75
75 1 2 9 9 75 76
76 1 2 9 9 76 77
77 1 2 9 9 77 78
78 1 2 9 9 78 79
79 1 2 9 9 79 80
80 1 2 9 9 80 81
81 1 2 9 9 81 82
82 1 2 9 9 82 9
83 2 2 11 10 91 244 119
84 2 2 11 10 93 243 120
85 2 2 11 10 132 244 91
86 2 2 11 10 131 243 93
87 2 2 11 10 91 119 129
88 2 2 11 10 92 127 121
89 2 2 11 10 93 120 130
90 2 2 11 10 94 128 122
91 2 2 11 10 74 145 217
92 2 2 11 10 79 146 218
93 2 2 11 10 121 217 145
94 2 2 11 10 122 218 146
95 2 2 11 10 92 121 145
96 2 2 11 10 94 122 146
97 2 2 11 10 115 91 181
98 2 2 11 10 116 93 182
99 2 2 11 10 117 180 92
100 2 2 11 10 94 118 179
101 2 2 11 10 115 149 91
102 2 2 11 10 116 150 93
103 2 2 11 10 117 92 151
104 2 2 11 10 94 152 118
105 2 2 11 10 20 167 189
106 2 2 11 10 52 169 190
107 2 2 11 10 31 191 168
108 2 2 11 10 63 192 170
109 2 2 11 10 97 123 161
110 2 2 11 10 98 124 162
111 2 2 11 10 95 159 125
112 2 2 11 10 96 160 126
113 2 2 11 10 15 185 172
114 2 2 11 10 47 186 171
115 2 2 11 10 36 173 183
116 2 2 11 10 68 174 184
117 2 2 11 10 97 163 123
118 2 2 11 10 98 164 124
119 2 2 11 10 95 125 165
120 2 2 11 10 96 126 166
121 2 2 11 10 103 125 213
122 2 2 11 10 104 126 214
123 2 2 11 10 105 211 123
124 2 2 11 10 106 212 124
125 2 2 11 10 153 239 119
126 2 2 11 10 154 240 120
127 2 2 11 10 155 121 241
128 2 2 11 10 122 242 156
129 2 2 11 10 105 123 189
130 2 2 11 10 106 124 190
131 2 2 11 10 103 191 125
132 2 2 11 10 104 192 126
133 2 2 11 10 116 184 204
134 2 2 11 10 115 183 203
135 2 2 11 10 186 118 206
136 2 2 11 10 117 205 185
137 2 2 11 10 105 189 167
138 2 2 11 10 169 106 190
139 2 2 11 10 168 191 103
140 2 2 11 10 104 170 192
141 2 2 11 10 110 204 184
142 2 2 11 10 109 203 183
143 2 2 11 10 186 206 111
144 2 2 11 10 112 185 205
145 2 2 11 10 78 146 79
146 2 2 11 10 9 145 74
147 2 2 11 10 153 95 239
148 2 2 11 10 154 96 240
149 2 2 11 10 97 155 241
150 2 2 11 10 98 156 242
151 2 2 11 10 55 56 137
152 2 2 11 10 23 24 138
153 2 2 11 10 59 60 137
154 2 2 11 10 27 28 138
155 2 2 11 10 112 172 185
156 2 2 11 10 111 171 186
157 2 2 11 10 109 183 173
158 2 2 11 10 110 184 174
159 2 2 11 10 39 40 143
160 2 2 11 10 71 72 144
161 2 2 11 10 43 44 143
162 2 2 11 10 12 144 11
163 2 2 11 10 9 82 131
164 2 2 11 10 77 132 78
165 2 2 11 10 61 62 136
166 2 2 11 10 29 30 135
167 2 2 11 10 53 54 134
168 2 2 11 10 21 22 133
169 2 2 11 10 5 42 41
170 2 2 11 10 26 25 3
171 2 2 11 10 57 7 58
172 2 2 11 10 73 1 10
173 2 2 11 10 91 129 181
174 2 2 11 10 92 180 127
175 2 2 11 10 130 182 93
176 2 2 11 10 94 179 128
177 2 2 11 10 39 143 197
178 2 2 11 10 71 144 198
179 2 2 11 10 44 199 143
180 2 2 11 10 12 200 144
181 2 2 11 10 45 46 139
182 2 2 11 10 13 14 140
183 2 2 11 10 37 38 141
184 2 2 11 10 69 70 142
185 2 2 11 10 88 136 222
186 2 2 11 10 135 221 87
187 2 2 11 10 133 87 223
188 2 2 11 10 134 88 224
189 2 2 11 10 78 235 146
190 2 2 11 10 9 236 145
191 2 2 11 10 2 163 127
192 2 2 11 10 6 164 128
193 2 2 11 10 4 129 165
194 2 2 11 10 8 130 166
195 2 2 11 10 23 138 194
196 2 2 11 10 55 137 193
197 2 2 11 10 28 196 138
198 2 2 11 10 60 195 137
199 2 2 11 10 2 127 180
200 2 2 11 10 6 128 179
201 2 2 11 10 4 181 129
202 2 2 11 10 8 182 130
203 2 2 11 10 62 170 136
204 2 2 11 10 30 168 135
205 2 2 11 10 53 134 169
206 2 2 11 10 21 133 167
207 2 2 11 10 126 160 214
208 2 2 11 10 125 159 213
209 2 2 11 10 123 211 161
210 2 2 11 10 124 212 162
211 2 2 11 10 107 197 143
212 2 2 11 10 108 198 144
213 2 2 11 10 107 143 199
214 2 2 11 10 108 144 200
215 2 2 11 10 136 170 222
216 2 2 11 10 135 168 221
217 2 2 11 10 133 223 167
218 2 2 11 10 169 134 224
219 2 2 11 10 100 194 138
220 2 2 11 10 137 99 193
221 2 2 11 10 100 138 196
222 2 2 11 10 137 195 99
223 2 2 11 10 4 165 33
224 2 2 11 10 8 166 65
225 2 2 11 10 2 18 163
226 2 2 11 10 6 50 164
227 2 2 11 10 153 119 215
228 2 2 11 10 154 120 216
229 2 2 11 10 155 217 121
230 2 2 11 10 122 156 218
231 2 2 11 10 89 139 231
232 2 2 11 10 90 140 232
233 2 2 11 10 89 229 141
234 2 2 11 10 90 230 142
235 2 2 11 10 152 238 226
236 2 2 11 10 225 151 237
237 2 2 11 10 107 141 197
238 2 2 11 10 108 142 198
239 2 2 11 10 107 199 139
240 2 2 11 10 108 200 140
241 2 2 11 10 61 136 195
242 2 2 11 10 29 135 196
243 2 2 11 10 54 193 134
244 2 2 11 10 22 194 133
245 2 2 11 10 106 148 212
246 2 2 11 10 103 213 147
247 2 2 11 10 136 99 195
248 2 2 11 10 100 196 135
249 2 2 11 10 134 193 99
250 2 2 11 10 100 133 194
251 2 2 11 10 82 243 131
252 2 2 11 10 77 244 132
253 2 2 11 10 112 205 158
254 2 2 11 10 111 206 157
255 2 2 11 10 46 171 139
256 2 2 11 10 14 172 140
257 2 2 11 10 37 141 173
258 2 2 11 10 69 142 174
259 2 2 11 10 116 204 150
260 2 2 11 10 115 203 149
261 2 2 11 10 118 152 206
262 2 2 11 10 117 151 205
263 2 2 11 10 56 177 137
264 2 2 11 10 24 176 138
265 2 2 11 10 59 137 177
266 2 2 11 10 27 138 176
267 2 2 11 10 107 233 141
268 2 2 11 10 108 234 142
269 2 2 11 10 63 64 192
270 2 2 11 10 31 32 191
271 2 2 11 10 51 52 190
272 2 2 11 10 19 20 189
273 2 2 11 10 45 139 199
274 2 2 11 10 13 140 200
275 2 2 11 10 38 197 141
276 2 2 11 10 70 198 142
277 2 2 11 10 85 152 226
278 2 2 11 10 86 151 225
279 2 2 11 10 121 127 241
280 2 2 11 10 128 242 122
281 2 2 11 10 129 119 239
282 2 2 11 10 130 120 240
283 2 2 11 10 106 224 148
284 2 2 11 10 103 147 221
285 2 2 11 10 33 165 251
286 2 2 11 10 65 166 252
287 2 2 11 10 18 249 163
288 2 2 11 10 50 250 164
289 2 2 11 10 107 139 233
290 2 2 11 10 108 140 234
291 2 2 11 10 83 159 227
292 2 2 11 10 84 160 228
293 2 2 11 10 132 114 235
294 2 2 11 10 131 113 236
295 2 2 11 10 78 132 235
296 2 2 11 10 9 131 236
297 2 2 11 10 159 207 227
298 2 2 11 10 160 208 228
299 2 2 11 10 40 175 143
300 2 2 11 10 72 178 144
301 2 2 11 10 43 143 175
302 2 2 11 10 11 144 178
303 2 2 11 10 62 63 170
304 2 2 11 10 30 31 168
305 2 2 11 10 52 53 169
306 2 2 11 10 20 21 167
307 2 2 11 10 4 34 181
308 2 2 11 10 8 66 182
309 2 2 11 10 2 180 17
310 2 2 11 10 6 179 49
311 2 2 11 10 139 171 231
312 2 2 11 10 140 172 232
313 2 2 11 10 141 229 173
314 2 2 11 10 142 230 174
315 2 2 11 10 86 158 205
316 2 2 11 10 85 157 206
317 2 2 11 10 15 16 185
318 2 2 11 10 47 48 186
319 2 2 11 10 35 36 183
320 2 2 11 10 67 68 184
321 2 2 11 10 132 187 114
322 2 2 11 10 131 188 113
323 2 2 11 10 125 251 165
324 2 2 11 10 126 252 166
325 2 2 11 10 123 163 249
326 2 2 11 10 124 164 250
327 2 2 11 10 46 47 171
328 2 2 11 10 14 15 172
329 2 2 11 10 36 37 173
330 2 2 11 10 68 69 174
331 2 2 11 10 84 212 148
332 2 2 11 10 83 147 213
333 2 2 11 10 111 157 231
334 2 2 11 10 112 158 232
335 2 2 11 10 133 220 87
336 2 2 11 10 134 219 88
337 2 2 11 10 135 87 220
338 2 2 11 10 88 219 136
339 2 2 11 10 100 220 133
340 2 2 11 10 134 99 219
341 2 2 11 10 100 135 220
342 2 2 11 10 136 219 99
343 2 2 11 10 131 93 188
344 2 2 11 10 132 91 187
345 2 2 11 10 114 226 238
346 2 2 11 10 225 237 113
347 2 2 11 10 89 233 139
348 2 2 11 10 90 234 140
349 2 2 11 10 85 203 157
350 2 2 11 10 86 204 158
351 2 2 11 10 24 25 176
352 2 2 11 10 40 41 175
353 2 2 11 10 56 57 177
354 2 2 11 10 72 73 178
355 2 2 11 10 10 11 178
356 2 2 11 10 58 59 177
357 2 2 11 10 42 43 175
358 2 2 11 10 26 27 176
359 2 2 11 10 109 157 203
360 2 2 11 10 110 158 204
361 2 2 11 10 89 141 233
362 2 2 11 10 90 142 234
363 2 2 11 10 113 237 145
364 2 2 11 10 114 238 146
365 2 2 11 10 92 145 237
366 2 2 11 10 94 146 238
367 2 2 11 10 83 211 147
368 2 2 11 10 84 148 214
369 2 2 11 10 76 201 153
370 2 2 11 10 81 202 154
371 2 2 11 10 75 155 201
372 2 2 11 10 80 156 202
373 2 2 11 10 105 147 211
374 2 2 11 10 104 214 148
375 2 2 11 10 101 153 201
376 2 2 11 10 154 202 102
377 2 2 11 10 101 201 155
378 2 2 11 10 102 202 156
379 2 2 11 10 97 241 163
380 2 2 11 10 98 242 164
381 2 2 11 10 95 165 239
382 2 2 11 10 96 166 240
383 2 2 11 10 10 178 73
384 2 2 11 10 25 26 176
385 2 2 11 10 41 42 175
386 2 2 11 10 57 58 177
387 2 2 11 10 113 145 236
388 2 2 11 10 114 146 235
389 2 2 11 10 127 163 241
390 2 2 11 10 128 164 242
391 2 2 11 10 129 239 165
392 2 2 11 10 130 240 166
393 2 2 11 10 88 148 224
394 2 2 11 10 87 221 147
395 2 2 11 10 89 231 157
396 2 2 11 10 90 232 158
397 2 2 11 10 91 149 187
398 2 2 11 10 93 150 188
399 2 2 11 10 105 223 147
400 2 2 11 10 104 148 222
401 2 2 11 10 87 147 223
402 2 2 11 10 88 222 148
403 2 2 11 10 95 207 159
404 2 2 11 10 96 208 160
405 2 2 11 10 97 161 209
406 2 2 11 10 98 162 210
407 2 2 11 10 76 153 215
408 2 2 11 10 81 154 216
409 2 2 11 10 75 217 155
410 2 2 11 10 80 218 156
411 2 2 11 10 153 207 95
412 2 2 11 10 154 208 96
413 2 2 11 10 97 209 155
414 2 2 11 10 98 210 156
415 2 2 11 10 109 229 157
416 2 2 11 10 110 230 158
417 2 2 11 10 83 227 161
418 2 2 11 10 84 228 162
419 2 2 11 10 89 157 229
420 2 2 11 10 90 158 230
421 2 2 11 10 85 149 203
422 2 2 11 10 86 150 204
423 2 2 11 10 86 205 151
424 2 2 11 10 85 206 152
425 2 2 11 10 101 207 153
426 2 2 11 10 154 102 208
427 2 2 11 10 101 155 209
428 2 2 11 10 102 156 210
429 2 2 11 10 83 213 159
430 2 2 11 10 84 214 160
431 2 2 11 10 83 161 211
432 2 2 11 10 84 162 212
433 2 2 11 10 85 226 149
434 2 2 11 10 86 225 150
435 2 2 11 10 92 237 151
436 2 2 11 10 94 238 152
437 2 2 11 10 54 55 193
438 2 2 11 10 22 23 194
439 2 2 11 10 60 61 195
440 2 2 11 10 28 29 196
441 2 2 11 10 38 39 197
442 2 2 11 10 70 71 198
443 2 2 11 10 44 45 199
444 2 2 11 10 12 13 200
445 2 2 11 10 76 215 77
446 2 2 11 10 81 216 82
447 2 2 11 10 74 217 75
448 2 2 11 10 79 218 80
449 2 2 11 10 75 201 76
450 2 2 11 10 80 202 81
451 2 2 11 10 168 103 221
452 2 2 11 10 104 222 170
453 2 2 11 10 105 167 223
454 2 2 11 10 169 224 106
455 2 2 11 10 101 227 207
456 2 2 11 10 102 228 208
457 2 2 11 10 118 248 179
458 2 2 11 10 117 247 180
459 2 2 11 10 115 181 245
460 2 2 11 10 116 182 246
461 2 2 11 10 49 179 248
462 2 2 11 10 17 180 247
463 2 2 11 10 66 246 182
464 2 2 11 10 34 245 181
465 2 2 11 10 32 33 251
466 2 2 11 10 18 19 249
467 2 2 11 10 64 65 252
468 2 2 11 10 50 51 250
469 2 2 11 10 34 35 245
470 2 2 11 10 66 67 246
471 2 2 11 10 16 17 247
472 2 2 11 10 48 49 248
473 2 2 11 10 111 231 171
474 2 2 11 10 112 232 172
475 2 2 11 10 109 173 229
476 2 2 11 10 110 174 230
477 2 2 11 10 161 227 209
478 2 2 11 10 162 228 210
479 2 2 11 10 188 225 113
480 2 2 11 10 114 187 226
481 2 2 11 10 115 245 183
482 2 2 11 10 116 246 184
483 2 2 11 10 117 185 247
484 2 2 11 10 186 248 118
485 2 2 11 10 188 150 225
486 2 2 11 10 187 149 226
487 2 2 11 10 67 184 246
488 2 2 11 10 35 183 245
489 2 2 11 10 48 248 186
490 2 2 11 10 16 247 185
491 2 2 11 10 101 209 227
492 2 2 11 10 102 210 228
493 2 2 11 10 189 123 249
494 2 2 11 10 190 124 250
495 2 2 11 10 125 191 251
496 2 2 11 10 126 192 252
497 2 2 11 10 19 189 249
498 2 2 11 10 51 190 250
499 2 2 11 10 32 251 191
500 2 2 11 10 64 252 192
501 2 2 11 10 77 215 244
502 2 2 11 10 82 216 243
503 2 2 11 10 120 243 216
504 2 2 11 10 119 244 215
$EndElements
